%YAML 1.1
%TAG !u! tag:unity3d.com,2011:
--- !u!21 &2100000
Material:
  serializedVersion: 6
  m_ObjectHideFlags: 0
  m_PrefabParentObject: {fileID: 0}
  m_PrefabInternal: {fileID: 0}
  m_Name: Assesories
  m_Shader: {fileID: 4800000, guid: 4a6aba8ad13e9704687a790b59eaf008, type: 3}
  m_ShaderKeywords: _BACK_COLOR_NONE _BOTTOM_COLOR_NONE _COLOR_ON _FADE_NONE _FRONT_COLOR_NONE
    _LEFT_COLOR_NONE _LIGHTMAP_ON _MIXCOLOR_ON _RIGHT_COLOR_NONE _TEXTUREENABLED_ON
    _TOP_COLOR_SOLID _UV_SPACE_OBJECT _VCOLOR_ON
  m_LightmapFlags: 5
  m_CustomRenderQueue: 2000
  stringTagMap: {}
  m_SavedProperties:
    serializedVersion: 2
    m_TexEnvs:
      data:
        first:
          name: _MainTex
        second:
          m_Texture: {fileID: 0}
          m_Scale: {x: 1, y: 1}
          m_Offset: {x: 0, y: 0}
      data:
        first:
          name: _BumpMap
        second:
          m_Texture: {fileID: 0}
          m_Scale: {x: 1, y: 1}
          m_Offset: {x: 0, y: 0}
      data:
        first:
          name: _DetailNormalMap
        second:
          m_Texture: {fileID: 0}
          m_Scale: {x: 1, y: 1}
          m_Offset: {x: 0, y: 0}
      data:
        first:
          name: _ParallaxMap
        second:
          m_Texture: {fileID: 0}
          m_Scale: {x: 1, y: 1}
          m_Offset: {x: 0, y: 0}
      data:
        first:
          name: _OcclusionMap
        second:
          m_Texture: {fileID: 0}
          m_Scale: {x: 1, y: 1}
          m_Offset: {x: 0, y: 0}
      data:
        first:
          name: _EmissionMap
        second:
          m_Texture: {fileID: 0}
          m_Scale: {x: 1, y: 1}
          m_Offset: {x: 0, y: 0}
      data:
        first:
          name: _DetailMask
        second:
          m_Texture: {fileID: 0}
          m_Scale: {x: 1, y: 1}
          m_Offset: {x: 0, y: 0}
      data:
        first:
          name: _DetailAlbedoMap
        second:
          m_Texture: {fileID: 0}
          m_Scale: {x: 1, y: 1}
          m_Offset: {x: 0, y: 0}
      data:
        first:
          name: _MetallicGlossMap
        second:
          m_Texture: {fileID: 0}
          m_Scale: {x: 1, y: 1}
          m_Offset: {x: 0, y: 0}
      data:
        first:
          name: _ToonShade
        second:
          m_Texture: {fileID: 8900000, guid: b995d4bd9d11078d11005b9844295342, type: 3}
          m_Scale: {x: 1, y: 1}
          m_Offset: {x: 0, y: 0}
      data:
        first:
          name: _Ramp
        second:
          m_Texture: {fileID: 0}
          m_Scale: {x: 1, y: 1}
          m_Offset: {x: 0, y: 0}
      data:
        first:
          name: _MatCap
        second:
          m_Texture: {fileID: 2800000, guid: 8320987374e1fb544879fc552b145948, type: 3}
          m_Scale: {x: 1, y: 1}
          m_Offset: {x: 0, y: 0}
      data:
        first:
          name: _diffuseMap
        second:
          m_Texture: {fileID: 0}
          m_Scale: {x: 1, y: 1}
          m_Offset: {x: 0, y: 0}
      data:
        first:
          name: _normalMap
        second:
          m_Texture: {fileID: 0}
          m_Scale: {x: 1, y: 1}
          m_Offset: {x: 0, y: 0}
    m_Floats:
      data:
        first:
          name: _SrcBlend
        second: 1
      data:
        first:
          name: _DstBlend
        second: 0
      data:
        first:
          name: _Cutoff
        second: 0.5
      data:
        first:
          name: _Shininess
        second: 0.7
      data:
        first:
          name: _Parallax
        second: 0.02
      data:
        first:
          name: _ZWrite
        second: 1
      data:
        first:
          name: _Glossiness
        second: 0.5
      data:
        first:
          name: _BumpScale
        second: 1
      data:
        first:
          name: _OcclusionStrength
        second: 1
      data:
        first:
          name: _DetailNormalMapScale
        second: 1
      data:
        first:
          name: _UVSec
        second: 0
      data:
        first:
          name: _Mode
        second: 0
      data:
        first:
          name: _Metallic
        second: 0
      data:
        first:
          name: _Outline
        second: 0.002
      data:
        first:
          name: _InvFade
        second: 1
      data:
        first:
          name: _TintColor
        second: 1
      data:
        first:
          name: _AmbientPower
        second: 1
      data:
        first:
          name: _LightmapPower
        second: 1
      data:
        first:
          name: _ShadowPower
        second: 0.589
      data:
        first:
          name: _UV_SPACE
        second: 0
      data:
        first:
          name: _MixColor
        second: 1
      data:
        first:
          name: _MixColorPower
        second: 0.5
      data:
        first:
          name: _TOP_COLOR
        second: 1
      data:
        first:
          name: _TopColorPosition3
        second: 0
      data:
        first:
          name: _TopColorRotation
        second: 0
      data:
        first:
          name: _BOTTOM_COLOR
        second: 0
      data:
        first:
          name: _BottomColorPosition3
        second: 0
      data:
        first:
          name: _BottomColorRotation
        second: 0
      data:
        first:
          name: _FRONT_COLOR
        second: 0
      data:
        first:
          name: _FrontColorPosition3
        second: 0
      data:
        first:
          name: _FrontColorRotation
        second: 0
      data:
        first:
          name: _BACK_COLOR
        second: 0
      data:
        first:
          name: _BackColorPosition3
        second: 0
      data:
        first:
          name: _BackColorRotation
        second: 0
      data:
        first:
          name: _RIGHT_COLOR
        second: 0
      data:
        first:
          name: _RightColorPosition3
        second: 0
      data:
        first:
          name: _RightColorRotation
        second: 0
      data:
        first:
          name: _LEFT_COLOR
        second: 0
      data:
        first:
          name: _LeftColorPosition3
        second: 0
      data:
        first:
          name: _LeftColorRotation
        second: 0
      data:
        first:
          name: _TextureEnabled
        second: 1
      data:
        first:
          name: _FADE
        second: 0
      data:
        first:
          name: _Shadow
        second: 0
      data:
        first:
          name: _Diffuse
        second: 0
      data:
        first:
          name: _DiffusePower
        second: 1
      data:
        first:
          name: _Ambient
        second: 0
      data:
        first:
          name: _Specular
        second: 0
      data:
        first:
          name: _LIGHTMAP
        second: 1
      data:
        first:
          name: _BumpAmt
        second: 10
      data:
        first:
          name: _specularPower
        second: 22.9
      data:
        first:
          name: _specularIntensity
        second: 1
      data:
        first:
          name: _specMapConstant
        second: 0.5
      data:
        first:
          name: _bands
        second: 6.35
      data:
        first:
          name: _DetailTex
        second: 0
      data:
        first:
          name: _VertexColor
        second: 1
      data:
        first:
          name: _Brightness
        second: 0.68
    m_Colors:
      data:
        first:
          name: _EmissionColor
        second: {r: 0, g: 0, b: 0, a: 1}
      data:
        first:
          name: _Color
        second: {r: 0, g: 0, b: 0, a: 1}
      data:
        first:
          name: _SpecColor
        second: {r: 1, g: 1, b: 1, a: 1}
      data:
        first:
          name: _OutlineColor
        second: {r: 0, g: 0, b: 0, a: 0.197}
      data:
        first:
          name: _TintColor
        second: {r: 0.5, g: 0.5, b: 0.5, a: 0.5}
      data:
        first:
          name: _TopColor
        second: {r: 0.9264706, g: 0.8592874, b: 0.48367214, a: 1}
      data:
        first:
          name: _BottomColor
        second: {r: 0, g: 0.835, b: 1, a: 1}
      data:
        first:
          name: _AmbientColor
        second: {r: 1, g: 1, b: 1, a: 1}
      data:
        first:
          name: _DefaultColor
        second: {r: 1, g: 0.80689657, b: 0, a: 1}
      data:
        first:
          name: _TopColor1
        second: {r: 0.667, g: 0.851, b: 0.937, a: 1}
      data:
        first:
          name: _TopColor2
        second: {r: 0.29, g: 0.8, b: 0.2, a: 1}
      data:
        first:
          name: _TopColor3
        second: {r: 0.29, g: 0.8, b: 0.2, a: 1}
      data:
        first:
          name: _TopColorPosition
        second: {r: 0, g: 1, b: 0, a: 1}
      data:
        first:
          name: _BottomColor1
        second: {r: 0.0046496587, g: 0.21694945, b: 0.31617647, a: 1}
      data:
        first:
          name: _BottomColor2
        second: {r: 0.29, g: 0.8, b: 0.2, a: 1}
      data:
        first:
          name: _BottomColor3
        second: {r: 0.17647058, g: 0, b: 0, a: 1}
      data:
        first:
          name: _BottomColorPosition
        second: {r: 0, g: 0.99999994, b: 0, a: 1}
      data:
        first:
          name: _FrontColor
        second: {r: 1, g: 1, b: 1, a: 1}
      data:
        first:
          name: _FrontColor1
        second: {r: 0.667, g: 0.851, b: 0.937, a: 1}
      data:
        first:
          name: _FrontColor2
        second: {r: 0.29, g: 0.8, b: 0.2, a: 1}
      data:
        first:
          name: _FrontColor3
        second: {r: 0.29, g: 0.8, b: 0.2, a: 1}
      data:
        first:
          name: _FrontColorPosition
        second: {r: 0, g: 1, b: 0, a: 1}
      data:
        first:
          name: _BackColor
        second: {r: 0.082, g: 1, b: 0.514, a: 1}
      data:
        first:
          name: _BackColor1
        second: {r: 0.082, g: 1, b: 0.514, a: 1}
      data:
        first:
          name: _BackColor2
        second: {r: 1, g: 0.082, b: 0.624, a: 1}
      data:
        first:
          name: _BackColor3
        second: {r: 1, g: 0.082, b: 0.624, a: 1}
      data:
        first:
          name: _BackColorPosition
        second: {r: 0, g: 1, b: 0, a: 1}
      data:
        first:
          name: _RightColor
        second: {r: 0.937, g: 0.765, b: 1, a: 1}
      data:
        first:
          name: _RightColor1
        second: {r: 0.937, g: 0.765, b: 1, a: 1}
      data:
        first:
          name: _RightColor2
        second: {r: 0.737, g: 0.071, b: 0.984, a: 1}
      data:
        first:
          name: _RightColor3
        second: {r: 0.737, g: 0.071, b: 0.984, a: 1}
      data:
        first:
          name: _RightColorPosition
        second: {r: 0, g: 1, b: 0, a: 1}
      data:
        first:
          name: _LeftColor
        second: {r: 0.765, g: 0.522, b: 0.459, a: 1}
      data:
        first:
          name: _LeftColor1
        second: {r: 0.765, g: 0.522, b: 0.459, a: 1}
      data:
        first:
          name: _LeftColor2
        second: {r: 0.98, g: 0.859, b: 0.706, a: 1}
      data:
        first:
          name: _LeftColor3
        second: {r: 0.98, g: 0.859, b: 0.706, a: 1}
      data:
        first:
          name: _LeftColorPosition
        second: {r: 0, g: 1, b: 0, a: 1}
      data:
        first:
          name: _FadeColor
        second: {r: 1, g: 0.6102941, b: 0.6102941, a: 1}
      data:
        first:
          name: _FadePower
        second: {r: 0, g: 1, b: 0, a: 1}
      data:
        first:
          name: _ShadowColor
        second: {r: 0.6, g: 0.5, b: 0.5, a: 1}
      data:
        first:
          name: _DiffuseColor
        second: {r: 1, g: 1, b: 1, a: 1}
      data:
        first:
          name: _HColor
        second: {r: 0.6, g: 0.6, b: 0.6, a: 1}
      data:
        first:
          name: _SColor
        second: {r: 0.3, g: 0.3, b: 0.3, a: 1}
      data:
        first:
          name: _diffuseColor
        second: {r: 1, g: 1, b: 1, a: 1}
      data:
        first:
          name: _specularColor
        second: {r: 1, g: 0.9802231, b: 0.71323526, a: 1}
